…
``` r
age_sex <- welfare %>% 
  filter(!is.na(income)) %>%  # 결측치를 제외한 월급 데이터 추출 
  group_by(age,sex) %>%      # 성별과 나이로 그룹 분리 
  summarise(mean_income = mean(income)) # 월급 평균 요약 통계량 산출 
```

    ## `summarise()` regrouping output by 'age' (override with `.groups` argument)

``` r
age_sex
```

    ## # A tibble: 134 x 3
    ## # Groups:   age [69]
    ##      age sex    mean_income
    ##    <dbl> <chr>        <dbl>
    ##  1    20 female        147.
    ##  2    20 male           69 
    ##  3    21 female        107.
    ##  4    21 male          102.
    ##  5    22 female        140.
    ##  6    22 male          118.
    ##  7    23 female        139.
    ##  8    23 male          153.
    ##  9    24 female        126.
    ## 10    24 male          158.
    ## # ... with 124 more rows
…
