…
``` r
job_income <- welfare %>% 
  filter(!is.na(income)) %>% # 결측치를 제외한 월급 데이터 추출 
  group_by(job) %>%          # 직업 별로 분리 
  summarise(mean_income = mean(income)) # 월급 평균 요약 통계량 산출
```

    ## `summarise()` ungrouping output (override with `.groups` argument)

``` r
job_income
```

    ## # A tibble: 142 x 2
    ##    job                                mean_income
    ##    <chr>                                    <dbl>
    ##  1 가사 및 육아 도우미                       80.2
    ##  2 간호사                                   241. 
    ##  3 건설 및 광업 단순 종사원                 190. 
    ##  4 건설 및 채굴 기계운전원                  358. 
    ##  5 건설 전기 및 생산 관련 관리자            536. 
    ##  6 건설관련 기능 종사자                     247. 
    ##  7 건설구조관련 기능 종사자                 242. 
    ##  8 건축 및 토목 공학 기술자 및 시험원       378. 
    ##  9 건축마감관련 기능 종사자                 254. 
    ## 10 경비원 및 검표원                         134. 
    ## # ... with 132 more rows
…
